<?xml version="1.0" encoding="iso-8859-1"?>
<!-- Generator: Adobe Illustrator 18.1.1, SVG Export Plug-In . SVG Version: 6.00 Build 0)  -->
<svg version="1.1" id="Capa_1" xmlns="http://www.w3.org/2000/svg" xmlns:xlink="http://www.w3.org/1999/xlink" x="0px" y="0px"
	 viewBox="0 0 612.001 612.001" style="enable-background:new 0 0 612.001 612.001;" xml:space="preserve">
<g>
	<g>
		<path d="M602.372,17.278c-0.93-3.775-3.877-6.72-7.65-7.65c-1.588-0.392-39.534-9.588-97.457-9.588
			c-26.365,0-52.804,1.935-78.586,5.751c-3.911,0.579-7.16,3.31-8.401,7.065c-1.239,3.752-0.259,7.886,2.536,10.679l175.653,175.653
			c1.992,1.992,4.667,3.063,7.398,3.063c1.096,0,2.205-0.172,3.281-0.529c3.75-1.241,6.484-4.49,7.062-8.399
			C620.885,94.158,603.135,20.37,602.372,17.278z"/>
		<path d="M352.503,25.833c-2.752-2.75-6.806-3.743-10.506-2.591c-75.126,23.406-141.86,63.919-198.349,120.403
			C87.162,200.131,46.65,266.865,23.241,341.996c-1.159,3.712-0.159,7.759,2.591,10.509l233.663,233.661
			c1.994,1.99,4.664,3.063,7.398,3.063c1.039,0,2.087-0.154,3.108-0.472c75.124-23.404,141.86-63.912,198.353-120.403
			c56.489-56.489,97.001-123.223,120.403-198.351c1.157-3.712,0.159-7.759-2.591-10.509L352.503,25.833z M443.324,295.399
			c-5.107,5.107-11.797,7.659-18.49,7.659c-6.693,0-13.383-2.552-18.49-7.659l-26.381-26.378l-36.98,36.978l26.383,26.383
			c10.211,10.211,10.211,26.768,0,36.98c-5.107,5.105-11.8,7.659-18.49,7.659c-6.693,0-13.381-2.552-18.49-7.659l-26.383-26.381
			l-36.982,36.982l26.383,26.381c10.211,10.211,10.211,26.768,0,36.982c-5.107,5.105-11.8,7.659-18.49,7.659
			c-6.693,0-13.383-2.552-18.49-7.659l-26.455-26.458c-4.873,4.156-10.901,6.255-16.938,6.255c-6.693,0-13.383-2.555-18.49-7.661
			c-9.712-9.712-10.168-25.151-1.404-35.426l-26.449-26.451c-10.214-10.211-10.214-26.768,0-36.982
			c10.214-10.211,26.769-10.211,36.982,0.002l26.374,26.374l36.982-36.982l-26.374-26.374c-10.214-10.211-10.214-26.768,0-36.982
			c10.214-10.214,26.769-10.211,36.982,0l26.374,26.376l36.978-36.975l-26.387-26.378c-10.211-10.211-10.211-26.768,0-36.98
			c10.214-10.211,26.768-10.211,36.982-0.002l26.453,26.453c10.277-8.764,25.718-8.31,35.43,1.404
			c9.712,9.712,10.166,25.153,1.402,35.428l26.455,26.455C453.536,268.628,453.536,285.187,443.324,295.399z"/>
		<path d="M23.532,412.814c-2.791-2.793-6.924-3.777-10.679-2.534c-3.752,1.241-6.484,4.49-7.062,8.401
			c-14.672,99.165,3.074,172.95,3.836,176.043c0.93,3.775,3.877,6.72,7.652,7.652c1.586,0.39,39.537,9.583,97.461,9.585
			c0.005,0,0.005,0,0.005,0c26.36,0,52.795-1.935,78.579-5.749c3.911-0.578,7.16-3.312,8.399-7.065
			c1.241-3.752,0.261-7.884-2.534-10.679L23.532,412.814z"/>
	</g>
</g>
<g>
</g>
<g>
</g>
<g>
</g>
<g>
</g>
<g>
</g>
<g>
</g>
<g>
</g>
<g>
</g>
<g>
</g>
<g>
</g>
<g>
</g>
<g>
</g>
<g>
</g>
<g>
</g>
<g>
</g>
</svg>
